"2   "|"R.N.M.                   "
"3   "|"ECOGRAFIA                "
"4   "|"ECODOPLER                "
"5   "|"MAMOGRAFIA               "
"6   "|"RAD INTERV               "
"7   "|"LITOTRICIAS              "
"8   "|"ENDOSCOPIAS              "
"9   "|"HOLTER                   "
"10  "|"ECOCARDIOGRAMA           "
"11  "|"E.M.G.                   "
"12  "|"E.E.G.                   "
"13  "|"POT EVOCADOS             "
"99  "|"OTRAS PRUEBAS            "
"1   "|"T.A.C.                   "
"14  "|"FISIOTERAPIA             "
"15  "|"LOGOTERAPIA              "
"16  "|"TER. OCUPACIONAL         "
"17  "|"ERGOMETRIA               "
"18  "|"ENDOSCOPIA RESPIRATORIA  "
"19  "|"RADIOLOGIA SIMPLE        "
"20  "|"RADIOLOGIA DIGESTIVO     "
"21  "|"RADIOLOGIA GENITOURINARIO"
