01.msg
Creando Tabla LESPLogger.
-------------------------------------------------
02.msg
Creando Procedure LogToLog.
-------------------------------------------------
03.msg
Creando Trigger Insert en tabla lista_espe.
-------------------------------------------------
04.msg
Creando Trigger Update en tabla lista_espe.
-------------------------------------------------
05.msg
Creando Trigger Delete en tabla lista_espe.
-------------------------------------------------
06.msg
Creando procedimiento de inicializacion.
-------------------------------------------------
07.msg
Creando tabla KK.
-------------------------------------------------
08.msg
Creando Vista VLESP.
-------------------------------------------------
09.msg
Creando Vista VHLESP.
-------------------------------------------------
10.msg
Creando tabla de log de citas CEX y Pruebas.
-------------------------------------------------
11.msg
Creando trigger update en citas.
-------------------------------------------------
12.msg
Creando trigger insert en citas.
-------------------------------------------------
13.msg
Creando trigger delete en citas.
-------------------------------------------------
14.msg
Creando inicializacion de citaslog.
-------------------------------------------------
15.msg
Creando procedimiento monitorPacientes.
-------------------------------------------------
16.msg
Creacion de la vista de centralizacion cex-pruebas historica.
-------------------------------------------------
17.msg
Creacion de la vista de centralizacion cex-pruebas.
-------------------------------------------------
18.msg
Creacion de la vista de centralizacion cex-pruebas anulaciones.
-------------------------------------------------
19.msg
Creacion del trigger Update en pacientes
.
-------------------------------------------------
20.msg
Ejecutando inicializacion de citas y pruebas.
-------------------------------------------------
21.msg
Ejecutando procedimiento de inicializacion de LEQuirurgica.
-------------------------------------------------
